{
  "name": "@colisweb/rescript-react-icons-ai",
  "reason": {
    "react-jsx": 3
  },
  "sources": [
    {
      "dir": "src",
      "subdirs": true
    }
  ],
  "package-specs": [
    {
      "module": "es6-global",
      "in-source": false
    }
  ],
  "suffix": ".bs.js",
  "namespace": false,
  "bs-dependencies": [
    "@rescript/react"
  ],
  "bs-dev-dependencies": [],
  "ppx-flags": [],
  "refmt": 3,
  "warnings": {
    "number": "-44-30",
    "error": "+5"
  },
  "bsc-flags": [
    "-bs-super-errors",
    "-bs-no-version-header",
    "-open Belt"
  ]
}